{
  "changes": [
    {
      "description": "Bump base docker image to version 2.67.",
      "type": "minor"
    },
    {
      "description": "Internal maintenance: bump project's dependencies to the latest.",
      "type": "patch"
    }
  ],
  "created_at": "2024-12-22T21:36:31+00:00",
  "version": "2.2.0"
}